{
  "defaultSeverity": "warning",
  "extends": ["tslint:recommended", "tslint-react", "tslint-config-prettier"],
  "linterOptions": {
    "exclude": [
      "config/**/*.js",
      "node_modules/**/*.ts",
      "coverage/lcov-report/*.js",
      "src/registerServiceWorker.ts"
    ]
  },
  "rules": {
    "semicolon": [true, "never"],
    "eofline": true,
    "max-line-length": [true, 120],
    "curly": true,
    "only-arrow-functions": true,
    "prefer-for-of": true,
    "no-duplicate-variable": [true, "check-parameters"],
    "no-console": false,
    "no-empty": true,
    "no-bitwise": true,
    "no-invalid-this": true,
    "no-this-assignment": true,
    "no-unnecessary-class": true,
    "no-unused-expression": true,
    "no-var-keyword": true,
    "no-void-expression": [true, "ignore-arrow-function-shorthand"],
    "prefer-conditional-expression": false,
    "indent": [true, "spaces", 4],
    "prefer-readonly": true,
    "no-require-imports": true,
    "prefer-const": true,
    "no-default-export": true,
    "no-duplicate-imports": true,
    "trailing-comma": [true, {"multiline": "never", "singleline": "never"}],
    "align": true,
    "array-type": [true, "array"],
    "arrow-parens": true,
    "arrow-return-shorthand": true,
    "class-name": true,
    "comment-format": [true, "check-space"],
    "interface-name": false,
    "no-empty-interface": false,
    "newline-per-chained-call": false,
    "new-parens": true,
    "no-angle-bracket-type-assertion": true,
    "no-trailing-whitespace": true,
    "one-line": [true, "check-catch", "check-else", "check-finally", "check-open-brace", "check-whitespace"],
    "ordered-imports": true,
    "object-literal-sort-keys": false,
    "quotemark": [true, "double", "avoid-escape", "jsx-double"],
    "space-before-function-paren": [true, "never"],
    "whitespace": true,
    "member-ordering": false,
    "variable-name": [true, "ban-keywords", "check-format", "allow-pascal-case"],
    "jsx-boolean-value": false,
    "jsx-no-lambda": false,
    "no-consecutive-blank-lines": true
  }
}
